^D:\GAMEDEV\O3D_1-12_BULL_3_BASE\SRC\MAIN.CPP
/c /ID:\GAMEDEV\BULLET3\BUILD\SDK\INCLUDE\BULLET /ID:\GAMEDEV\OGRE\BUILD\SDK\INCLUDE\OGRE\BITES /ID:\GAMEDEV\OGRE\BUILD\SDK\INCLUDE\OGRE /ID:\GAMEDEV\OGRE\BUILD\SDK\INCLUDE\OGRE\OVERLAY /ID:\GAMEDEV\OGRE\BUILD\SDK\INCLUDE\OGRE\RTSHADERSYSTEM /ID:\GAMEDEV\OGRE\BUILD\SDK\INCLUDE\OGRE\MESHLODGENERATOR /ID:\GAMEDEV\OGRE\BUILD\SDK\INCLUDE\OGRE\PAGING /ID:\GAMEDEV\OGRE\BUILD\SDK\INCLUDE\OGRE\PROPERTY /ID:\GAMEDEV\OGRE\BUILD\SDK\INCLUDE\OGRE\TERRAIN /ID:\GAMEDEV\OGRE\BUILD\SDK\INCLUDE\OGRE\VOLUME /I"D:\GAMEDEV\O3D_1-12_BULL_3_BASE\BUILD" /Zi /nologo /W3 /WX- /diagnostics:column /O2 /Ob1 /D _MBCS /D WIN32 /D _WINDOWS /D NDEBUG /D _CONSOLE /D "CMAKE_INTDIR=\"RelWithDebInfo\"" /Gm- /EHsc /MD /GS /fp:precise /Zc:wchar_t /Zc:forScope /Zc:inline /GR /Fo"SIMPLEGAME.DIR\RELWITHDEBINFO\\" /Fd"SIMPLEGAME.DIR\RELWITHDEBINFO\VC142.PDB" /Gd /TP D:\GAMEDEV\O3D_1-12_BULL_3_BASE\SRC\MAIN.CPP
^D:\GAMEDEV\O3D_1-12_BULL_3_BASE\SRC\GAME.CPP
/c /ID:\GAMEDEV\BULLET3\BUILD\SDK\INCLUDE\BULLET /ID:\GAMEDEV\OGRE\BUILD\SDK\INCLUDE\OGRE\BITES /ID:\GAMEDEV\OGRE\BUILD\SDK\INCLUDE\OGRE /ID:\GAMEDEV\OGRE\BUILD\SDK\INCLUDE\OGRE\OVERLAY /ID:\GAMEDEV\OGRE\BUILD\SDK\INCLUDE\OGRE\RTSHADERSYSTEM /ID:\GAMEDEV\OGRE\BUILD\SDK\INCLUDE\OGRE\MESHLODGENERATOR /ID:\GAMEDEV\OGRE\BUILD\SDK\INCLUDE\OGRE\PAGING /ID:\GAMEDEV\OGRE\BUILD\SDK\INCLUDE\OGRE\PROPERTY /ID:\GAMEDEV\OGRE\BUILD\SDK\INCLUDE\OGRE\TERRAIN /ID:\GAMEDEV\OGRE\BUILD\SDK\INCLUDE\OGRE\VOLUME /I"D:\GAMEDEV\O3D_1-12_BULL_3_BASE\BUILD" /Zi /nologo /W3 /WX- /diagnostics:column /O2 /Ob1 /D _MBCS /D WIN32 /D _WINDOWS /D NDEBUG /D _CONSOLE /D "CMAKE_INTDIR=\"RelWithDebInfo\"" /Gm- /EHsc /MD /GS /fp:precise /Zc:wchar_t /Zc:forScope /Zc:inline /GR /Fo"SIMPLEGAME.DIR\RELWITHDEBINFO\\" /Fd"SIMPLEGAME.DIR\RELWITHDEBINFO\VC142.PDB" /Gd /TP D:\GAMEDEV\O3D_1-12_BULL_3_BASE\SRC\GAME.CPP
^D:\GAMEDEV\O3D_1-12_BULL_3_BASE\BUILD\PLAYER.CPP
/c /ID:\GAMEDEV\BULLET3\BUILD\SDK\INCLUDE\BULLET /ID:\GAMEDEV\OGRE\BUILD\SDK\INCLUDE\OGRE\BITES /ID:\GAMEDEV\OGRE\BUILD\SDK\INCLUDE\OGRE /ID:\GAMEDEV\OGRE\BUILD\SDK\INCLUDE\OGRE\OVERLAY /ID:\GAMEDEV\OGRE\BUILD\SDK\INCLUDE\OGRE\RTSHADERSYSTEM /ID:\GAMEDEV\OGRE\BUILD\SDK\INCLUDE\OGRE\MESHLODGENERATOR /ID:\GAMEDEV\OGRE\BUILD\SDK\INCLUDE\OGRE\PAGING /ID:\GAMEDEV\OGRE\BUILD\SDK\INCLUDE\OGRE\PROPERTY /ID:\GAMEDEV\OGRE\BUILD\SDK\INCLUDE\OGRE\TERRAIN /ID:\GAMEDEV\OGRE\BUILD\SDK\INCLUDE\OGRE\VOLUME /I"D:\GAMEDEV\O3D_1-12_BULL_3_BASE\BUILD" /Zi /nologo /W3 /WX- /diagnostics:column /O2 /Ob1 /D _MBCS /D WIN32 /D _WINDOWS /D NDEBUG /D _CONSOLE /D "CMAKE_INTDIR=\"RelWithDebInfo\"" /Gm- /EHsc /MD /GS /fp:precise /Zc:wchar_t /Zc:forScope /Zc:inline /GR /Fo"SIMPLEGAME.DIR\RELWITHDEBINFO\\" /Fd"SIMPLEGAME.DIR\RELWITHDEBINFO\VC142.PDB" /Gd /TP D:\GAMEDEV\O3D_1-12_BULL_3_BASE\BUILD\PLAYER.CPP
